{
    _id: ObjectId('62b50eabf68d98d046082859'),
    username: 'admin',
    firstName: 'Admin',
    lastName: 'Admin',
    phone: '0628918829',
    idNumber: '123456789',
    password: 'Sifra1234!',
    type: 'Admin'
}